…
amr_upset(binary_matrix, min_set_size = 3, order = "value", assay = "mic")

#> $plot

#> 
#> $summary
#> # A tibble: 103 × 19
#>    marker_list        marker_count     n combination_id   R.n   R.ppv R.ci_lower
#>    <chr>                     <dbl> <int> <chr>          <dbl>   <dbl>      <dbl>
#>  1 ""                            0  2590 0_0_0_0_0_0_0…    10 0.00386    0.00147
#>  2 "qnrB"                        1     1 0_0_0_0_0_0_0…     1 1          1      
#>  3 "parE_E460K, gyrA…            2     1 0_0_0_0_0_0_0…     1 1          1      
#>  4 "parE_D475E"                  1    61 0_0_0_0_0_0_0…     0 0          0      
#>  5 "qnrA1"                       1     2 0_0_0_0_0_0_0…     0 0          0      
#>  6 "gyrA_S83A"                   1     3 0_0_0_0_0_0_0…     0 0          0      
#>  7 "qnrB4"                       1     2 0_0_0_0_0_0_0…     2 1          1      
#>  8 "parE_I355T"                  1    24 0_0_0_0_0_0_0…     0 0          0      
#>  9 "marR_S3N"                    1    38 0_0_0_0_0_0_0…     4 0.105      0.00769
#> 10 "marR_S3N, parE_D…            2     4 0_0_0_0_0_0_0…     0 0          0      
#> # ℹ 93 more rows
#> # ℹ 12 more variables: R.ci_upper <dbl>, NWT.n <dbl>, NWT.ppv <dbl>,
#> #   NWT.ci_lower <dbl>, NWT.ci_upper <dbl>, median_excludeRangeValues <dbl>,
#> #   q25_excludeRangeValues <dbl>, q75_excludeRangeValues <dbl>,
#> #   n_excludeRangeValues <int>, median_ignoreRanges <dbl>,
#> #   q25_ignoreRanges <dbl>, q75_ignoreRanges <dbl>
…
