Compare Genotype and Phenotype Data by Sample ID — compare_geno_pheno_id • AMRgen
…
#> [3581] "SAMN07291521" "SAMN11953785" "SAMN11953781" "SAMN11953780"
#> [3585] "SAMN11953778" "SAMN11953777" "SAMN11953776" "SAMN11953774"
#> [3589] "SAMN11954013" "SAMN11953796" "SAMN11953801" "SAMN11953802"
#> [3593] "SAMN11953803" "SAMN11953804" "SAMN11953805" "SAMN11953797"
#> [3597] "SAMN11953800" "SAMN11953798" "SAMN11953893" "SAMN11953895"
#> [3601] "SAMN11953909" "SAMN11953883" "SAMN11953896" "SAMN11953991"
#> [3605] "SAMN05170083" "SAMN28235857" "SAMN04448242" "SAMN16887358"
#> [3609] "SAMN16887354" "SAMN16887373" "SAMN16887371" "SAMN16887369"
#> [3613] "SAMN16887362" "SAMN28235860" "SAMN28235843" "SAMN28235841"
#> [3617] "SAMN28235839" "SAMN28235837" "SAMN28235862" "SAMN28235861"
#> [3621] "SAMN28235859" "SAMN28235858" "SAMN28235856" "SAMN28235854"
#> [3625] "SAMN28235852" "SAMN28235850" "SAMN28235848" "SAMN28235846"
#> [3629] "SAMN28235834" "SAMN03892121"
print(result$geno_matched)
#> # A tibble: 36,111 × 36
#>    Name         gene    mutation node  marker marker.label drug_agent drug_class
#>    <chr>        <chr>   <chr>    <chr> <chr>  <chr>        <ab>       <chr>     
#>  1 SAMN03177615 blaEC   NA       blaEC blaEC  blaEC        NA         Beta-lact…
#>  2 SAMN03177615 acrF    NA       acrF  acrF   acrF         NA         Efflux    
#>  3 SAMN03177615 glpT    Glu448L… glpT  glpT_… glpT:Glu448… FOS        Other ant…
#>  4 SAMN03177615 floR    NA       floR  floR   floR         CHL        Amphenico…
#>  5 SAMN03177615 floR    NA       floR  floR   floR         FLR        Other ant…
#>  6 SAMN03177615 mdtM    NA       mdtM  mdtM   mdtM         NA         Efflux    
#>  7 SAMN03177615 blaTEM… NA       blaT… blaTE… blaTEM-1     NA         Beta-lact…
#>  8 SAMN03177615 sul2    NA       sul2  sul2   sul2         SSS        Other ant…
#>  9 SAMN03177615 aph(3'… NA       aph(… aph(3… aph(3'')-Ib  STR1       Aminoglyc…
#> 10 SAMN03177615 aph(6)… NA       aph(… aph(6… aph(6)-Id    STR1       Aminoglyc…
#> # ℹ 36,101 more rows
#> # ℹ 28 more variables: `Protein identifier` <lgl>, `Contig id` <chr>,
#> #   Start <dbl>, Stop <dbl>, Strand <chr>, `Gene symbol` <chr>,
#> #   `Sequence name` <chr>, Scope <chr>, `Element type` <chr>,
#> #   `Element subtype` <chr>, Class <chr>, Subclass <chr>, Method <chr>,
#> #   `Target length` <dbl>, `Reference sequence length` <dbl>,
#> #   `% Coverage of reference sequence` <dbl>, …
print(result$pheno_matched)
#> # A tibble: 3,630 × 10
#>    id           drug_agent     mic  disk pheno_clsi ecoff guideline method
#>    <chr>        <ab>         <mic> <dsk> <sir>      <sir> <chr>     <chr> 
#>  1 SAMN11638310 CIP        256.000    NA   R          R   CLSI      NA    
#>  2 SAMN04122821 CIP          1.000    NA   R          R   CLSI      Vitek 
#>  3 SAMN04279649 CIP        >=4.000    NA   R          R   CLSI      Vitek 
#>  4 SAMN04279648 CIP        >=4.000    NA   R          R   CLSI      Vitek 
#>  5 SAMN04339728 CIP          1.000    NA   R          R   CLSI      Vitek 
#>  6 SAMN04393387 CIP        >=4.000    NA   R          R   CLSI      Vitek 
#>  7 SAMN04455486 CIP        <=0.015    NA   S          S   CLSI      NA    
#>  8 SAMN04455488 CIP        <=0.015    NA   S          S   CLSI      NA    
#>  9 SAMN04455487 CIP        <=0.015    NA   S          S   CLSI      NA    
#> 10 SAMN04495823 CIP        <=0.015    NA   S          S   CLSI      NA    
#> # ℹ 3,620 more rows
#> # ℹ 2 more variables: pheno_provided <sir>, spp_pheno <mo>
…
