Retrieve Antimicrobial Wild Type Distributions from EUCAST — get_eucast_amr_distribution • AMRgen
…
The compare_*_with_eucast() functions allow to compare a user range with EUCAST distributions. Use autoplot() on the output to visualise the results.

    Examples

get_eucast_mic_distribution("cipro")
#> Retrieving list of antimicrobials from eucast.org...
#> OK
#> Returning antimicrobial wild type distributions for ciprofloxacin
#> From: https://mic.eucast.org/search/?search[method]=mic&search[antibiotic]=60&search[limit]=999
#> # A tibble: 2,033 × 4
#>    microorganism              microorganism_code   mic count
#>    <chr>                      <mo>               <mic> <dbl>
#>  1 Achromobacter xylosoxidans B_ACHRMB_XYLS      0.002     0
#>  2 Achromobacter xylosoxidans B_ACHRMB_XYLS      0.004     0
#>  3 Achromobacter xylosoxidans B_ACHRMB_XYLS      0.008     0
#>  4 Achromobacter xylosoxidans B_ACHRMB_XYLS      0.016     0
#>  5 Achromobacter xylosoxidans B_ACHRMB_XYLS      0.030     0
#>  6 Achromobacter xylosoxidans B_ACHRMB_XYLS      0.060     0
#>  7 Achromobacter xylosoxidans B_ACHRMB_XYLS      0.125     0
#>  8 Achromobacter xylosoxidans B_ACHRMB_XYLS      0.250     1
#>  9 Achromobacter xylosoxidans B_ACHRMB_XYLS      0.500     0
#> 10 Achromobacter xylosoxidans B_ACHRMB_XYLS      1.000     6
#> # ℹ 2,023 more rows
get_eucast_mic_distribution("cipro", as_freq_table = FALSE)
#> Returning antimicrobial wild type distributions for ciprofloxacin
#> From: https://mic.eucast.org/search/?search[method]=mic&search[antibiotic]=60&search[limit]=999
#> # A tibble: 107 × 25
#>    microorganism       microorganism_code `0.002` `0.004` `0.008` `0.016` `0.03`
#>    <chr>               <mo>                 <dbl>   <dbl>   <dbl>   <dbl>  <dbl>
#>  1 Achromobacter xylo… B_ACHRMB_XYLS            0       0       0       0      0
#>  2 Acinetobacter baum… B_ACNTB_BMNN             0       0       2       5     16
#>  3 Acinetobacter pitt… B_ACNTB_PITT             0       0       0       0      0
#>  4 Actinomyces israel… B_AMYCS_ISRL             0       0       0       0      0
#>  5 Aerococcus sanguin… B_AERCC_SNGN             0       0       0       0      0
#>  6 Aerococcus urinae   B_AERCC_URIN             0       0       0       0      0
#>  7 Alcaligenes faecal… B_ALCLG_FCLS             0       0       0       0      0
#>  8 Bacillus anthracis  B_BCLLS_ANTH             0       0       0       0      2
#>  9 Bacillus cereus     B_BCLLS_CERS             0       0       0       0      0
#> 10 Brucella melitensis B_BRCLL_MLTN             0       0       0       1      0
#> # ℹ 97 more rows
#> # ℹ 18 more variables: `0.06` <dbl>, `0.125` <dbl>, `0.25` <dbl>, `0.5` <dbl>,
#> #   `1` <int>, `2` <int>, `4` <int>, `8` <int>, `16` <int>, `32` <int>,
#> #   `64` <int>, `128` <int>, `256` <int>, `512` <int>, distributions <chr>,
#> #   observations <chr>, ecoff <chr>, confidence_interval <chr>
…
#>  9   0.500   119
#> 10   1.000    88
#> 11   2.000    36
#> 12   4.000    43
#> 13   8.000    26
#> 14  16.000    36
#> 15  32.000   105
#> 16  64.000    53
#> 17 128.000    31
#> 18 256.000    28
#> 19 512.000    15
get_eucast_disk_distribution("cipro", "K. pneumoniae")
#> Returning antimicrobial wild type distributions for ciprofloxacin
#> From: https://mic.eucast.org/search/?search[method]=diff&search[antibiotic]=60&search[limit]=999
#> # A tibble: 45 × 2
#>    disk_diffusion count
#>            <disk> <int>
#>  1              6   362
#>  2              7     6
#>  3              8     8
#>  4              9     8
#>  5             10    20
#>  6             11    15
#>  7             12     5
#>  8             13     8
#>  9             14    20
#> 10             15    37
#> # ℹ 35 more rows
…
# Comparing With User Values ----------------------------------------------

my_mic_values <- AMR::random_mic(500)
comparison <- compare_mic_with_eucast(my_mic_values, ab = "cipro", mo = "K. pneumoniae")
#> Returning antimicrobial wild type distributions for ciprofloxacin
#> From: https://mic.eucast.org/search/?search[method]=mic&search[antibiotic]=60&search[limit]=999
comparison
#> # A tibble: 25 × 3
#>    value    user eucast
#>  * <fct>   <int>  <int>
#>  1 <=0.001    35      0
#>  2 0.002      31      0
#>  3 0.004       0      4
#>  4 0.005      25      0
#>  5 0.008       0    116
#>  6 0.01       20      0
#>  7 0.016       0    545
#>  8 0.025      32      0
#>  9 0.03        0   1456
#> 10 0.06        0    692
#> # ℹ 15 more rows
…
