…
### 1. Genotype table

The
[`import_amrfp()`](https://AMRverse.github.io/AMRgen/reference/import_amrfp.md)
function lets you load genotype data from AMRFinderPlus output files,
and process it to generate an object with the key columns needed to work
with the `AMRgen` package.

``` r
# Example AMRFinderPlus genotyping output (from Allthebacteria project)
ecoli_geno_raw
#> # A tibble: 45,228 × 28
#>    Name      `Protein identifier` `Contig id`  Start   Stop Strand `Gene symbol`
#>    <chr>     <lgl>                <chr>        <dbl>  <dbl> <chr>  <chr>        
#>  1 SAMN0317… NA                   SAMN031776…  74721  75851 -      blaEC        
#>  2 SAMN0317… NA                   SAMN031776… 166214 169315 +      acrF         
#>  3 SAMN0317… NA                   SAMN031776…  20678  22033 -      glpT_E448K   
#>  4 SAMN0317… NA                   SAMN031776…    758   1969 -      floR         
#>  5 SAMN0317… NA                   SAMN031776…   4440   5666 +      mdtM         
#>  6 SAMN0317… NA                   SAMN031776…   3941   4798 +      blaTEM-1     
#>  7 SAMN0317… NA                   SAMN031776…    142    954 +      sul2         
#>  8 SAMN0317… NA                   SAMN031776…   1018   1818 +      aph(3'')-Ib  
#>  9 SAMN0317… NA                   SAMN031776…   1821   2654 +      aph(6)-Id    
#> 10 SAMN0317… NA                   SAMN031776…    788   1957 +      tet(A)       
#> # ℹ 45,218 more rows
#> # ℹ 21 more variables: `Sequence name` <chr>, Scope <chr>,
#> #   `Element type` <chr>, `Element subtype` <chr>, Class <chr>, Subclass <chr>,
#> #   Method <chr>, `Target length` <dbl>, `Reference sequence length` <dbl>,
#> #   `% Coverage of reference sequence` <dbl>,
#> #   `% Identity to reference sequence` <dbl>, `Alignment length` <dbl>,
#> #   `Accession of closest sequence` <chr>, `Name of closest sequence` <chr>, …
…
### 2. Phenotype table

The
[`import_ncbi_ast()`](https://AMRverse.github.io/AMRgen/reference/import_ncbi_ast.md)
function imports AST data from NCBI format files.

``` r
# Example E. coli AST data from NCBI
# This one has already been imported and phenotypes interpreted from assay data
# You can make your own from different file formats, and interpret against breakpoints, using:
#    import_ast("filepath/NCBI_AST.tsv", format="ncbi", interpret_clsi=T)
#    import_ast("filepath/Vitek_AST.tsv", format="vitek", interpret_eucast=T)

ecoli_ast
#> # A tibble: 4,170 × 10
#>    id           drug_agent     mic  disk pheno_clsi ecoff guideline method
#>    <chr>        <ab>         <mic> <dsk> <sir>      <sir> <chr>     <chr> 
#>  1 SAMN36015110 CIP        <128.00    NA   R          R   CLSI      NA    
#>  2 SAMN11638310 CIP         256.00    NA   R          R   CLSI      NA    
#>  3 SAMN05729964 CIP          64.00    NA   R          R   CLSI      Etest 
#>  4 SAMN10620111 CIP         >=4.00    NA   R          R   CLSI      NA    
#>  5 SAMN10620168 CIP         >=4.00    NA   R          R   CLSI      NA    
#>  6 SAMN10620104 CIP         <=0.25    NA   S          R   CLSI      NA    
#>  7 SAMN10620102 CIP         >=4.00    NA   R          R   CLSI      NA    
#>  8 SAMN10620129 CIP         >=4.00    NA   R          R   CLSI      NA    
#>  9 SAMN10620121 CIP         >=4.00    NA   R          R   CLSI      NA    
#> 10 SAMN10620086 CIP         >=4.00    NA   R          R   CLSI      NA    
#> # ℹ 4,160 more rows
#> # ℹ 2 more variables: pheno_provided <sir>, spp_pheno <mo>
…
### 4. Download reference assay distributions and compare to your data

It can also be helpful to check how your MIC or disk zone distribution
compares to the reference distributions, to get a sense of whether your
assays were calibrated correctly or if there may be some issues with a
given dataset. AMRgen has functions to download the latest reference
distributions from EUCAST (mic.eucast.org), and plot them on their own
or with your data overlaid.

``` r
# get MIC distribution for ciprofloxacin, for all organisms
get_eucast_mic_distribution("cipro")
#> # A tibble: 2,033 × 4
#>    microorganism              microorganism_code   mic count
#>    <chr>                      <mo>               <mic> <int>
#>  1 Achromobacter xylosoxidans B_ACHRMB_XYLS      0.002     0
#>  2 Achromobacter xylosoxidans B_ACHRMB_XYLS      0.004     0
#>  3 Achromobacter xylosoxidans B_ACHRMB_XYLS      0.008     0
#>  4 Achromobacter xylosoxidans B_ACHRMB_XYLS      0.016     0
#>  5 Achromobacter xylosoxidans B_ACHRMB_XYLS      0.030     0
#>  6 Achromobacter xylosoxidans B_ACHRMB_XYLS      0.060     0
#>  7 Achromobacter xylosoxidans B_ACHRMB_XYLS      0.125     0
#>  8 Achromobacter xylosoxidans B_ACHRMB_XYLS      0.250     1
#>  9 Achromobacter xylosoxidans B_ACHRMB_XYLS      0.500     0
#> 10 Achromobacter xylosoxidans B_ACHRMB_XYLS      1.000     6
#> # ℹ 2,023 more rows
…
``` r
# Compare reference distribution to random test data
my_mic_values <- AMR::random_mic(500)
comparison <- compare_mic_with_eucast(my_mic_values, ab = "cipro", mo = "E. coli")
#> Joining with `by = join_by(value)`
comparison
#> # A tibble: 25 × 3
#>    value     user eucast
#>  * <fct>    <int>  <int>
#>  1 <=0.0005    47      0
#>  2 0.001       29      0
#>  3 0.002       44     14
#>  4 0.004       33    189
#>  5 0.008       28   3952
#>  6 0.016       34   7238
#>  7 0.03         0   1355
#>  8 0.032       24      0
#>  9 0.06         0    356
#> 10 0.064       32      0
#> # ℹ 15 more rows
…
``` r


# Compare reference distribution to example E. coli data
ecoli_cip <- ecoli_ast$mic[ecoli_ast$drug_agent == "CIP"]
comparison <- compare_mic_with_eucast(ecoli_cip, ab = "cipro", mo = "E. coli")
#> Joining with `by = join_by(value)`
comparison
#> # A tibble: 34 × 3
#>    value    user eucast
#>  * <fct>   <int>  <int>
#>  1 0.002       0     14
#>  2 0.004       0    189
#>  3 0.008       0   3952
#>  4 <0.015     41      0
#>  5 <=0.015  2642      0
#>  6 0.016       0   7238
#>  7 0.03       69   1355
#>  8 <=0.06     11      0
#>  9 0.06        5    356
#> 10 0.12       34      0
#> # ℹ 24 more rows
…
# Extract model summary details using `logistf_details()`
modelR_summary <- logistf_details(modelR)

modelR_summary
#> # A tibble: 24 × 5
#>    marker         est ci.lower ci.upper    pval
#>  * <chr>        <dbl>    <dbl>    <dbl>   <dbl>
#>  1 (Intercept) -5.31    -5.83     -4.80 0      
#>  2 gyrA_S83L    5.10     4.43      5.76 0      
#>  3 gyrA_D87Y    0.611   -3.23      4.45 0.755  
#>  4 gyrA_D87N    1.04    -1.49      3.57 0.422  
#>  5 parC_S80I    3.54     1.07      6.01 0.00502
#>  6 parE_S458A  -0.670   -3.46      2.11 0.637  
#>  7 parC_S80R    0.948   -0.887     2.78 0.311  
#>  8 parE_L416F   1.09    -1.81      3.98 0.461  
#>  9 parC_S57T    1.41    -1.44      4.27 0.331  
#> 10 soxS_A12S    1.58    -1.33      4.50 0.287  
#> # ℹ 14 more rows
…
# Note the matrix output is the same as cip_bin, but without the MIC data as this is not required
#    for logistic regression.
models$bin_mat
#> # A tibble: 3,630 × 49
#>    id       pheno ecoff     R   NWT gyrA..Ser83Leu gyrA..Asp87Tyr gyrA..Asp87Asn
#>    <chr>    <sir> <sir> <dbl> <dbl>          <dbl>          <dbl>          <dbl>
#>  1 SAMN031…   S     S       0     0              0              0              0
#>  2 SAMN031…   S     S       0     0              0              0              0
#>  3 SAMN031…   S     S       0     0              0              0              0
#>  4 SAMN031…   S     R       0     1              1              0              0
#>  5 SAMN031…   S     R       0     1              0              1              0
#>  6 SAMN031…   S     S       0     0              0              0              0
#>  7 SAMN031…   S     S       0     0              0              0              0
#>  8 SAMN031…   R     R       1     1              1              0              1
#>  9 SAMN031…   S     R       0     1              1              0              0
#> 10 SAMN031…   R     R       1     1              1              0              1
#> # ℹ 3,620 more rows
#> # ℹ 41 more variables: parC..Ser80Ile <dbl>, parE..Ser458Ala <dbl>,
#> #   parC..Ser80Arg <dbl>, parE..Leu416Phe <dbl>, qnrB6 <dbl>,
#> #   gyrA..Asp87Gly <dbl>, parC..Ser57Thr <dbl>, parC..Glu84Ala <dbl>,
#> #   soxS..Ala12Ser <dbl>, qnrB2 <dbl>, qnrS2 <dbl>, parC..Glu84Lys <dbl>,
#> #   parC..Ala56Thr <dbl>, qnrB19 <dbl>, `aac(6')-Ib-cr5` <dbl>,
#> #   parC..Glu84Val <dbl>, parE..Ile529Leu <dbl>, parE..Ser458Thr <dbl>, …
```
…
``` r

# Output table
soloPPV_cipro$solo_stats
#> # A tibble: 36 × 8
#>    marker         category     x     n   ppv     se ci.lower ci.upper
#>    <chr>          <chr>    <dbl> <int> <dbl>  <dbl>    <dbl>    <dbl>
#>  1 aac(6')-Ib-cr5 R            0     1 0     0       0          0    
#>  2 gyrA_D87N      R            0     1 0     0       0          0    
#>  3 gyrA_D87Y      R            0     3 0     0       0          0    
#>  4 gyrA_S83A      R            0     3 0     0       0          0    
#>  5 gyrA_S83L      R           27    62 0.435 0.0630  0.312      0.559
#>  6 marR_S3N       R            4    38 0.105 0.0498  0.00769    0.203
#>  7 parC_A56T      R            0     6 0     0       0          0    
#>  8 parC_S57T      R            0    23 0     0       0          0    
#>  9 parE_D475E     R            0    61 0     0       0          0    
#> 10 parE_I355T     R            0    24 0     0       0          0    
#> # ℹ 26 more rows

# Interim matrices with data used to compute stats and plots
soloPPV_cipro$solo_binary
#> # A tibble: 306 × 9
#>    id           pheno ecoff   mic  disk     R   NWT marker    value
#>    <chr>        <sir> <sir> <mic> <dsk> <dbl> <dbl> <chr>     <dbl>
#>  1 SAMN03177618   S     R    0.25    NA     0     1 gyrA_S83L     1
#>  2 SAMN03177619   S     R    0.12    NA     0     1 gyrA_D87Y     1
#>  3 SAMN03177623   S     R    0.25    NA     0     1 gyrA_S83L     1
#>  4 SAMN03177631   S     R    0.25    NA     0     1 gyrA_S83L     1
#>  5 SAMN03177635   S     R    0.25    NA     0     1 gyrA_S83L     1
#>  6 SAMN03177637   S     R    0.25    NA     0     1 gyrA_S83L     1
#>  7 SAMN03177638   S     R    0.25    NA     0     1 qnrB6         1
#>  8 SAMN03177639   S     R    0.12    NA     0     1 gyrA_S83L     1
#>  9 SAMN03177643   S     R    0.25    NA     0     1 gyrA_S83L     1
#> 10 SAMN03177646   S     R    0.25    NA     0     1 gyrA_S83L     1
#> # ℹ 296 more rows

soloPPV_cipro$amr_binary
#> # A tibble: 3,630 × 51
#>    id        pheno ecoff     mic  disk     R   NWT gyrA_S83L gyrA_D87Y gyrA_D87N
#>    <chr>     <sir> <sir>   <mic> <dsk> <dbl> <dbl>     <dbl>     <dbl>     <dbl>
#>  1 SAMN0317…   S     S   <=0.015    NA     0     0         0         0         0
#>  2 SAMN0317…   S     S   <=0.015    NA     0     0         0         0         0
#>  3 SAMN0317…   S     S   <=0.015    NA     0     0         0         0         0
#>  4 SAMN0317…   S     R     0.250    NA     0     1         1         0         0
#>  5 SAMN0317…   S     R     0.120    NA     0     1         0         1         0
#>  6 SAMN0317…   S     S   <=0.015    NA     0     0         0         0         0
#>  7 SAMN0317…   S     S   <=0.015    NA     0     0         0         0         0
#>  8 SAMN0317…   R     R    >4.000    NA     1     1         1         0         1
#>  9 SAMN0317…   S     R     0.250    NA     0     1         1         0         0
#> 10 SAMN0317…   R     R    >4.000    NA     1     1         1         0         1
#> # ℹ 3,620 more rows
#> # ℹ 41 more variables: parC_S80I <dbl>, parE_S458A <dbl>, parC_S80R <dbl>,
#> #   parE_L416F <dbl>, qnrB6 <dbl>, gyrA_D87G <dbl>, parC_S57T <dbl>,
#> #   parC_E84A <dbl>, soxS_A12S <dbl>, qnrB2 <dbl>, qnrS2 <dbl>,
#> #   parC_E84K <dbl>, parC_A56T <dbl>, qnrB19 <dbl>, `aac(6')-Ib-cr5` <dbl>,
#> #   parC_E84V <dbl>, parE_I529L <dbl>, parE_S458T <dbl>, parE_E460D <dbl>,
#> #   parC_E84G <dbl>, qnrS1 <dbl>, marR_S3N <dbl>, `aac(6')-Ib-cr` <dbl>, …
```
…
``` r

# Output table
cipro_mic_upset$summary
#> # A tibble: 103 × 19
#>    marker_list        marker_count     n combination_id   R.n   R.ppv R.ci_lower
#>    <chr>                     <dbl> <int> <chr>          <dbl>   <dbl>      <dbl>
#>  1 ""                            0  2590 0_0_0_0_0_0_0…    10 0.00386    0.00147
#>  2 "qnrB"                        1     1 0_0_0_0_0_0_0…     1 1          1      
#>  3 "parE_E460K, gyrA…            2     1 0_0_0_0_0_0_0…     1 1          1      
#>  4 "parE_D475E"                  1    61 0_0_0_0_0_0_0…     0 0          0      
#>  5 "qnrA1"                       1     2 0_0_0_0_0_0_0…     0 0          0      
#>  6 "gyrA_S83A"                   1     3 0_0_0_0_0_0_0…     0 0          0      
#>  7 "qnrB4"                       1     2 0_0_0_0_0_0_0…     2 1          1      
#>  8 "parE_I355T"                  1    24 0_0_0_0_0_0_0…     0 0          0      
#>  9 "marR_S3N"                    1    38 0_0_0_0_0_0_0…     4 0.105      0.00769
#> 10 "marR_S3N, parE_D…            2     4 0_0_0_0_0_0_0…     0 0          0      
#> # ℹ 93 more rows
#> # ℹ 12 more variables: R.ci_upper <dbl>, NWT.n <dbl>, NWT.ppv <dbl>,
#> #   NWT.ci_lower <dbl>, NWT.ci_upper <dbl>, median_excludeRangeValues <dbl>,
#> #   q25_excludeRangeValues <dbl>, q75_excludeRangeValues <dbl>,
#> #   n_excludeRangeValues <int>, median_ignoreRanges <dbl>,
#> #   q25_ignoreRanges <dbl>, q75_ignoreRanges <dbl>
```
